<svg width="25" height="24" viewBox="0 0 25 24" fill="none" xmlns="http://www.w3.org/2000/svg">
<path d="M13.5 10H18.5L12.5 16L6.5 10H11.5V3H13.5V10ZM4.5 19H20.5V12H22.5V20C22.5 20.5523 22.0523 21 21.5 21H3.5C2.94772 21 2.5 20.5523 2.5 20V12H4.5V19Z" fill="white"/>
</svg>
