<svg width="12" height="16" viewBox="0 0 12 16" fill="none" xmlns="http://www.w3.org/2000/svg">
<path d="M11.376 8.4158L0.77735 15.4816C0.54759 15.6348 0.23715 15.5727 0.0839701 15.3429C0.0292201 15.2608 0 15.1643 0 15.0656V0.934082C0 0.657942 0.22386 0.434082 0.5 0.434082C0.59871 0.434082 0.69522 0.463302 0.77735 0.518062L11.376 7.5838C11.6057 7.737 11.6678 8.0474 11.5146 8.2772C11.478 8.3321 11.4309 8.3792 11.376 8.4158Z" fill="white"/>
</svg>
