<svg width="40" height="40" viewBox="0 0 40 40" fill="none" xmlns="http://www.w3.org/2000/svg">
<g clip-path="url(#clip0_309_1259)">
<path d="M13 20H27" stroke="#4A63FE" stroke-width="2" stroke-linecap="round" stroke-linejoin="round"/>
<path d="M23 24L27 20" stroke="#4A63FE" stroke-width="2" stroke-linecap="round" stroke-linejoin="round"/>
<path d="M23 16L27 20" stroke="#4A63FE" stroke-width="2" stroke-linecap="round" stroke-linejoin="round"/>
</g>
<rect x="0.5" y="0.5" width="39" height="39" rx="19.5" stroke="url(#paint0_linear_309_1259)"/>
<defs>
<linearGradient id="paint0_linear_309_1259" x1="0" y1="20" x2="40" y2="20" gradientUnits="userSpaceOnUse">
<stop offset="0.00518307" stop-color="#3652FF"/>
<stop offset="1" stop-color="#7285FF"/>
</linearGradient>
<clipPath id="clip0_309_1259">
<rect width="24" height="24" fill="white" transform="translate(8 8)"/>
</clipPath>
</defs>
</svg>
